{
  "LuaSnip": { "branch": "master", "commit": "ea7d7ea510c641c4f15042becd27f35b3e5b3c2b" },
  "catppuccin": { "branch": "main", "commit": "85e93601e0f0b48aa2c6bbfae4d0e9d7a1898280" },
  "cmp-nvim-lsp": { "branch": "main", "commit": "44b16d11215dce86f253ce0c30949813c0a90765" },
  "harpoon": { "branch": "master", "commit": "21f4c47c6803d64ddb934a5b314dcb1b8e7365dc" },
  "lazy.nvim": { "branch": "main", "commit": "2a9354c7d2368d78cbd5575a51a2af5bd8a6ad01" },
  "lsp-zero.nvim": { "branch": "v2.x", "commit": "f084f4a6a716f55bf9c4026e73027bb24a0325a3" },
  "mason-lspconfig.nvim": { "branch": "main", "commit": "f014db32437aa61c86fc0ef1067cd2bc6a37205c" },
  "mason.nvim": { "branch": "main", "commit": "d66c60e17dd6fd8165194b1d14d21f7eb2c1697a" },
  "neoconf.nvim": { "branch": "main", "commit": "06afabe121ec01784e7c4da20340a338ae78f7c7" },
  "neodev.nvim": { "branch": "main", "commit": "471324e6c746284dbbdc1d357799d1911bb7e120" },
  "nvim-cmp": { "branch": "main", "commit": "5dce1b778b85c717f6614e3f4da45e9f19f54435" },
  "nvim-lspconfig": { "branch": "master", "commit": "57139c690dc8d594b2f9de8d1e609f2854a4fe45" },
  "nvim-treesitter": { "branch": "master", "commit": "48b237fd3f482aef2f5896b8b7a6ece71c19ad99" },
  "playground": { "branch": "master", "commit": "429f3e76cbb1c59fe000b690f7a5bea617b890c0" },
  "plenary.nvim": { "branch": "master", "commit": "9ce85b0f7dcfe5358c0be937ad23e456907d410b" },
  "rose-pine": { "branch": "main", "commit": "e29002cbee4854a9c8c4b148d8a52fae3176070f" },
  "rust-tools.nvim": { "branch": "master", "commit": "0cc8adab23117783a0292a0c8a2fbed1005dc645" },
  "telescope.nvim": { "branch": "master", "commit": "59812c26d826e8c717e29406267ea1260f71e103" },
  "tokyonight.nvim": { "branch": "main", "commit": "9a01eada39558dc3243278e6805d90e8dff45dc0" },
  "undotree": { "branch": "master", "commit": "0e11ba7325efbbb3f3bebe06213afa3e7ec75131" },
  "vim-commentary": { "branch": "master", "commit": "e87cd90dc09c2a203e13af9704bd0ef79303d755" },
  "vim-fugitive": { "branch": "master", "commit": "572c8510123cbde02e8a1dafcd376c98e1e13f43" },
  "vim-surround": { "branch": "master", "commit": "3d188ed2113431cf8dac77be61b842acb64433d9" },
  "vim-tmux-navigator": { "branch": "master", "commit": "addb64a772cb4a3ae1f1363583012b2cada2cd66" },
  "vim-visual-multi": { "branch": "master", "commit": "724bd53adfbaf32e129b001658b45d4c5c29ca1a" },
  "which-key.nvim": { "branch": "main", "commit": "7ccf476ebe0445a741b64e36c78a682c1c6118b7" }
}